Project 1 Complete Code
…
Breweries_by_State$region <- c("alabama", "alaska", "arizona", "arkansas", "california", 
                "colorado", "connecticut","district of columbia", "delaware", "florida", "georgia", 
                "hawaii", "idaho", "illinois", "indiana", "iowa", "kansas", 
                "kentucky", "louisiana", "maine", "maryland", "massachusetts", 
                "michigan", "minnesota", "mississippi", "missouri", "montana", 
                "nebraska", "nevada", "new hampshire", "new jersey", "new mexico", 
                "new york", "north carolina", "north dakota", "ohio", "oklahoma", 
                "oregon", "pennsylvania", "rhode island", "south carolina", "south dakota", 
                "tennessee", "texas", "utah", "vermont", "virginia", "washington", 
                "west virginia", "wisconsin", "wyoming")

Breweries_by_State

## # A tibble: 51 × 3
##    State num_Breweries region              
##    <chr>         <int> <chr>               
##  1 " AK"             7 alabama             
##  2 " AL"             3 alaska              
##  3 " AR"             2 arizona             
##  4 " AZ"            11 arkansas            
##  5 " CA"            39 california          
##  6 " CO"            47 colorado            
##  7 " CT"             8 connecticut         
##  8 " DC"             1 district of columbia
##  9 " DE"             2 delaware            
## 10 " FL"            15 florida             
## # … with 41 more rows
…
